[gd_resource type="Resource" load_steps=4 format=2]

[ext_resource path="res://src/components/modes/MatchMode.gd" type="Script" id=1]
[ext_resource path="res://mods/core/modes/battle_royale/BattleRoyaleManager.tscn" type="PackedScene" id=2]
[ext_resource path="res://mods/core/modes/battle_royale/BattleRoyaleConfig.tscn" type="PackedScene" id=3]

[resource]
script = ExtResource( 1 )
name = "Battle Royale"
description = "The last tank standing wins the round."
requires_goals = false
manager_scene = ExtResource( 2 )
config_scene = ExtResource( 3 )
