[gd_scene load_steps=4 format=2]

[ext_resource path="res://src/objects/tank/BaseTank.gd" type="Script" id=1]
[ext_resource path="res://assets/objects.png" type="Texture" id=2]
[ext_resource path="res://src/objects/whitening_shader.tres" type="Material" id=4]

[node name="BaseTank" type="SGKinematicBody2D"]
collision_layer = 2
collision_mask = 3
script = ExtResource( 1 )

[node name="CollisionPolygon2D" type="SGCollisionPolygon2D" parent="."]
fixed_polygon_pairs = [ [ -2752512, -1703936 ], [ -2097152, -2686976 ], [ 1835008, -2686976 ], [ 2621440, -1310720 ], [ 2621440, 1376256 ], [ 1835008, 2686976 ], [ -2031616, 2686976 ], [ -2752512, 1769472 ] ]

[node name="BodySprite" type="Sprite" parent="."]
material = ExtResource( 4 )
rotation = -1.5708
texture = ExtResource( 2 )
region_enabled = true
region_rect = Rect2( 434, 0, 84, 83 )

[node name="TurretPivot" type="SGFixedPosition2D" parent="."]

[node name="TurretSprite" type="Sprite" parent="TurretPivot"]
rotation = -1.5708
texture = ExtResource( 2 )
centered = false
offset = Vector2( -12, -10 )
region_enabled = true
region_rect = Rect2( 722, 199, 24, 60 )

[node name="BulletStartPosition" type="SGFixedPosition2D" parent="TurretPivot"]
position = Vector2( 55, 0 )
fixed_position_x = 3604480
