[gd_scene load_steps=7 format=2]

[ext_resource path="res://assets/fonts/monogram.tres" type="DynamicFont" id=1]
[ext_resource path="res://src/ui/UILayer.gd" type="Script" id=2]
[ext_resource path="res://assets/ui/return.png" type="Texture" id=3]
[ext_resource path="res://src/ui/TransparentButton.gd" type="Script" id=4]
[ext_resource path="res://assets/theme.tres" type="Theme" id=5]
[ext_resource path="res://src/ui/Alert.tscn" type="PackedScene" id=6]

[node name="UILayer" type="CanvasLayer" groups=["network_sync"]]
script = ExtResource( 2 )

[node name="Screens" type="Control" parent="."]
pause_mode = 2
anchor_right = 1.0
anchor_bottom = 1.0
mouse_filter = 2
__meta__ = {
"_edit_use_anchors_": false
}

[node name="Overlay" type="Control" parent="."]
pause_mode = 2
anchor_right = 1.0
anchor_bottom = 1.0
mouse_filter = 2
theme = ExtResource( 5 )
__meta__ = {
"_edit_use_anchors_": false
}

[node name="Cover" type="ColorRect" parent="Overlay"]
visible = false
anchor_right = 1.0
anchor_bottom = 1.0
color = Color( 0, 0, 0, 0.501961 )
__meta__ = {
"_edit_use_anchors_": false
}

[node name="Message" type="Label" parent="Overlay"]
visible = false
anchor_right = 1.0
margin_left = 100.0
margin_top = 50.0
margin_right = -100.0
margin_bottom = 120.0
custom_colors/font_color = Color( 1, 1, 1, 1 )
custom_fonts/font = ExtResource( 1 )
text = "Waiting for players..."
align = 1
autowrap = true
clip_text = true
max_lines_visible = 1
__meta__ = {
"_edit_use_anchors_": false
}

[node name="BackButton" type="Button" parent="Overlay"]
visible = false
anchor_left = 1.0
anchor_right = 1.0
margin_left = -72.0
margin_top = 10.0
margin_right = -9.67554
margin_bottom = 75.5339
custom_fonts/font = ExtResource( 1 )
icon = ExtResource( 3 )
script = ExtResource( 4 )
__meta__ = {
"_edit_use_anchors_": false
}
button_type = 1

[node name="Alert" parent="Overlay" instance=ExtResource( 6 )]
visible = false

[connection signal="pressed" from="Overlay/BackButton" to="." method="_on_BackButton_pressed"]
[connection signal="completed" from="Overlay/Alert" to="." method="_on_Alert_completed"]
