[gd_scene load_steps=4 format=2]

[ext_resource path="res://src/objects/DropCrate.gd" type="Script" id=1]
[ext_resource path="res://assets/objects.png" type="Texture" id=2]

[sub_resource type="Animation" id=1]
resource_name = "glow"
length = 2.0
loop = true
tracks/0/type = "value"
tracks/0/path = NodePath("Sprite:self_modulate")
tracks/0/interp = 1
tracks/0/loop_wrap = true
tracks/0/imported = false
tracks/0/enabled = true
tracks/0/keys = {
"times": PoolRealArray( 0, 0.9 ),
"transitions": PoolRealArray( 1.62451, 0.659754 ),
"update": 0,
"values": [ Color( 0.952941, 0.952941, 0.952941, 1 ), Color( 1, 0, 0.188235, 1 ) ]
}

[node name="DropCrate" type="SGStaticBody2D" groups=["DropCrate"]]
collision_mask = 6
script = ExtResource( 1 )

[node name="Sprite" type="Sprite" parent="."]
self_modulate = Color( 0.952941, 0.952941, 0.952941, 1 )
texture = ExtResource( 2 )
region_enabled = true
region_rect = Rect2( 592, 420, 56, 56 )

[node name="CollisionPolygon2D" type="SGCollisionPolygon2D" parent="."]
fixed_polygon_pairs = [ [ -1835008, -1179648 ], [ 0, -1835008 ], [ 1769472, -1179648 ], [ 1703936, 1310720 ], [ 0, 1900544 ], [ -1835008, 1245184 ] ]

[node name="AnimationPlayer" type="AnimationPlayer" parent="."]
anims/glow = SubResource( 1 )
