[gd_scene load_steps=2 format=2]

[ext_resource path="res://addons/network-sync-rollback/log_inspector/ProgressDialog.gd" type="Script" id=1]

[node name="ProgressDialog" type="PopupDialog"]
margin_right = 720.0
margin_bottom = 75.0
popup_exclusive = true
script = ExtResource( 1 )
__meta__ = {
"_edit_use_anchors_": false
}

[node name="MarginContainer" type="MarginContainer" parent="."]
anchor_right = 1.0
anchor_bottom = 1.0
custom_constants/margin_right = 10
custom_constants/margin_top = 10
custom_constants/margin_left = 10
custom_constants/margin_bottom = 10
__meta__ = {
"_edit_use_anchors_": false
}

[node name="VBoxContainer" type="VBoxContainer" parent="MarginContainer"]
margin_left = 10.0
margin_top = 10.0
margin_right = 710.0
margin_bottom = 65.0
__meta__ = {
"_edit_use_anchors_": false
}

[node name="Label" type="Label" parent="MarginContainer/VBoxContainer"]
margin_right = 700.0
margin_bottom = 25.0
size_flags_vertical = 3
text = "Filename"
valign = 1

[node name="ProgressBar" type="ProgressBar" parent="MarginContainer/VBoxContainer"]
margin_top = 29.0
margin_right = 700.0
margin_bottom = 55.0
size_flags_vertical = 3
