[gd_scene load_steps=3 format=2]

[ext_resource path="res://assets/objects.png" type="Texture" id=1]

[sub_resource type="SGRectangleShape2D" id=1]
extents_x = 1900544
extents_y = 1835008

[node name="BarricadeWood" type="SGStaticBody2D"]
collision_mask = 2

[node name="Sprite" type="Sprite" parent="."]
texture = ExtResource( 1 )
region_enabled = true
region_rect = Rect2( 596, 72, 56, 56 )

[node name="CollisionShape2D" type="SGCollisionShape2D" parent="."]
shape = SubResource( 1 )
