[gd_scene load_steps=5 format=2]

[ext_resource path="res://src/game/ShakeCamera.tscn" type="PackedScene" id=1]
[ext_resource path="res://src/Game.gd" type="Script" id=2]
[ext_resource path="res://src/game/HUD.tscn" type="PackedScene" id=3]
[ext_resource path="res://addons/network-sync-rollback/NetworkRandomNumberGenerator.gd" type="Script" id=4]

[node name="Game" type="Node2D" groups=["network_sync"]]
script = ExtResource( 2 )

[node name="Map" type="Node2D" parent="."]

[node name="Players" type="Node2D" parent="."]

[node name="PlayerCamera" parent="." instance=ExtResource( 1 )]

[node name="WatchCamera" type="Camera2D" parent="."]

[node name="CanvasLayer" type="CanvasLayer" parent="."]

[node name="HUD" parent="CanvasLayer" instance=ExtResource( 3 )]

[node name="RandomNumberGenerator" type="Node" parent="."]
script = ExtResource( 4 )
