[gd_scene load_steps=5 format=2]

[ext_resource path="res://src/main/match/RoundScreen.gd" type="Script" id=1]
[ext_resource path="res://assets/theme.tres" type="Theme" id=2]
[ext_resource path="res://src/ui/PlayerStatus.tscn" type="PackedScene" id=3]
[ext_resource path="res://assets/ui/gray_panel_screws_stylebox.tres" type="StyleBox" id=4]

[node name="RoundScreen" type="Control"]
anchor_right = 1.0
anchor_bottom = 1.0
theme = ExtResource( 2 )
script = ExtResource( 1 )
__meta__ = {
"_edit_use_anchors_": false
}

[node name="Panel" type="Panel" parent="."]
anchor_left = 0.5
anchor_top = 0.5
anchor_right = 0.5
anchor_bottom = 0.5
margin_left = -540.0
margin_top = -196.0
margin_right = 540.0
margin_bottom = 196.0
custom_styles/panel = ExtResource( 4 )
__meta__ = {
"_edit_use_anchors_": false
}

[node name="StatusContainer" type="VBoxContainer" parent="Panel"]
anchor_left = 0.5
anchor_top = 0.5
anchor_right = 0.5
anchor_bottom = 0.5
margin_left = -300.0
margin_top = -108.0
margin_right = 300.0
margin_bottom = 108.0
rect_min_size = Vector2( 600, 0 )
__meta__ = {
"_edit_use_anchors_": false
}

[node name="PlayerStatus" parent="Panel/StatusContainer" instance=ExtResource( 3 )]
margin_bottom = 51.0
