[gd_resource type="Resource" load_steps=4 format=2]

[ext_resource path="res://mods/core/weapons/RailgunBullet.tscn" type="PackedScene" id=1]
[ext_resource path="res://src/components/weapons/WeaponType.gd" type="Script" id=2]
[ext_resource path="res://src/components/weapons/BaseWeapon.gd" type="Script" id=3]

[resource]
script = ExtResource( 2 )
name = "Railgun"
weapon_script = ExtResource( 3 )
bullet_scene = ExtResource( 1 )
damage = 10
